{
    "concat": {
	"options": {
	    "stripBanners": true,
	    "banner": "\/*! <%= pkg.name %> - v<%= pkg.version %> <%= grunt.template.today(\"yyyy-mm-dd\") %> *\/"
	},
	"bin": {
	    "src": ["boot/dependencies.js","config/app.js","app/services/messages.js","app/routes.js","app/hooks/messages.js", "config/errorHandler.js", "config/process/messages.js", "config/server.js"],
	    "dest": "bin/www"
	},
	"test": {
	    "src": ["boot/devDependencies.js","test/server.js"],
	    "dest": "bin/test"
	}
    }
}
